…
Filter results for rare disorders with obligate or 100% frequency in
patient’s populations, showing disorder type, HPO frequency and disorder
name. Specifically, I wanted to find out the disorder names associated
with the “Disease” disorder type with HPO frequency of “Obligate
(100%)”.

``` r
df_freq_ob <- df %>% 
  filter(`Disorder type` == "Disease", `HPO frequency` == "Obligate (100%)") %>% 
  select(`Disorder type`, `HPO frequency`, `Disorder name`)
df_freq_ob
```

    ## # A tibble: 404 × 3
    ##    `Disorder type` `HPO frequency` `Disorder name`                                     
    ##    <chr>           <chr>           <chr>                                               
    ##  1 Disease         Obligate (100%) Retinoblastoma                                      
    ##  2 Disease         Obligate (100%) Parathyroid carcinoma                               
    ##  3 Disease         Obligate (100%) Pituitary carcinoma                                 
    ##  4 Disease         Obligate (100%) Familial hypocalciuric hypercalcemia                
    ##  5 Disease         Obligate (100%) Familial hypocalciuric hypercalcemia                
    ##  6 Disease         Obligate (100%) Ravine syndrome                                     
    ##  7 Disease         Obligate (100%) Ravine syndrome                                     
    ##  8 Disease         Obligate (100%) Interstitial granulomatous dermatitis with arthritis
    ##  9 Disease         Obligate (100%) Interstitial granulomatous dermatitis with arthritis
    ## 10 Disease         Obligate (100%) PLIN1-related familial partial lipodystrophy        
    ## # … with 394 more rows
    ## # ℹ Use `print(n = ...)` to see more rows

I’d then like to look into associated counts of appearance of each
disorder name. When I cross-checked with the original dataset table
view, I’ve noted that the number of appearance of each disorder name is
linked to the number of preferred HPO phenotype terms of each of these
disorder types.

``` r
df2 <- df_freq_ob %>% count(`Disorder name`)
df2 %>% arrange(desc(n))
```

    ## # A tibble: 239 × 2
    ##    `Disorder name`                                                                       n
    ##    <chr>                                                                             <int>
    ##  1 Autosomal recessive complex spastic paraplegia due to Kennedy pathway dysfunction    10
    ##  2 STT3A-CDG                                                                             9
    ##  3 STT3B-CDG                                                                             9
    ##  4 Spastic paraplegia-Paget disease of bone syndrome                                     8
    ##  5 Oculocutaneous albinism type 5                                                        7
    ##  6 PLIN1-related familial partial lipodystrophy                                          7
    ##  7 Plummer-Vinson syndrome                                                               5
    ##  8 SSR4-CDG                                                                              5
    ##  9 Cholesterol-ester transfer protein deficiency                                         4
    ## 10 Isolated follicle stimulating hormone deficiency                                      4
    ## # … with 229 more rows
    ## # ℹ Use `print(n = ...)` to see more rows
…
