…
``` r
df %>% View()
```

### Data analysis

After perusing the data set, I’ve decided to focus on selected columns
only so that I can concentrate on these data without seeing other minor
details at this stage.

``` r
select(df, `Generic Name`, `Trade Name`, `Date Designated`, `Orphan Designation`, `Approved Labeled Indication`, `Marketing Approval Date`, `Exclusivity Protected Indication * (Shown for approvals from Jan. 1, 2013, to the present)`, `Sponsor Country`)
```

    ## # A tibble: 1,058 × 8
    ##    `Generic Name`                `Trade Name` `Date Designat…` `Orphan Design…`
    ##    <chr>                         <chr>        <chr>            <chr>           
    ##  1 bosentan                      Tracleer     10/06/00         Treatment of pu…
    ##  2 bosentan                      Tracleer     10/06/00         Treatment of pu…
    ##  3 (tisagenlecleucel) Autologou… Kymriah (ti… 01/31/2014       For the treatme…
    ##  4 5-aminolevulinic acid         Gleolan      01/15/2013       Visualization o…
    ##  5 abatacept                     Orencia      12/26/2017       Prevention of g…
    ##  6 acalabrutinib                 CALQUENCE    09/21/2015       Treatment of ma…
    ##  7 acalabrutinib                 <NA>         05/13/2015       Treatment of ch…
    ##  8 acetylcysteine                Acetadote    10/19/2001       For the intrave…
    ##  9 acetylcysteine effervescent … Cetylev      02/24/2015       Preventing hepa…
    ## 10 acyclovir                     Avaclyr      12/13/2010       Treatment of ac…
    ## # … with 1,048 more rows, and 4 more variables:
    ## #   `Approved Labeled Indication` <chr>, `Marketing Approval Date` <chr>,
    ## #   `Exclusivity Protected Indication * (Shown for approvals from Jan. 1, 2013, to the present)` <chr>,
    ## #   `Sponsor Country` <chr>

I’m interested in finding out what countries were involved in developing
rare disease drugs and also how frequently each of these drugs appeared
in the data set from 1983 till present. So I’ve done a simple count() on
sponsor country column to see the distributions.

``` r
df %>% count(`Sponsor Country`)
```

    ## # A tibble: 22 × 2
    ##    `Sponsor Country`     n
    ##    <chr>             <int>
    ##  1 Australia             1
    ##  2 Austria               1
    ##  3 Barbados              1
    ##  4 Belgium               2
    ##  5 Canada                8
    ##  6 Denmark               1
    ##  7 Finland               1
    ##  8 France               10
    ##  9 Germany               4
    ## 10 Ireland              16
    ## # … with 12 more rows
…
``` r
df1 = df %>% slice(-c(1058))
```

The count was then repeated, which had the last row removed as shown in
the table.

``` r
df1 %>% count(`Sponsor Country`)
```

    ## # A tibble: 21 × 2
    ##    `Sponsor Country`     n
    ##    <chr>             <int>
    ##  1 Australia             1
    ##  2 Austria               1
    ##  3 Barbados              1
    ##  4 Belgium               2
    ##  5 Canada                8
    ##  6 Denmark               1
    ##  7 Finland               1
    ##  8 France               10
    ##  9 Germany               4
    ## 10 Ireland              16
    ## # … with 11 more rows
…
